Ugandan Knuckles

Johnny Johnny

Dat Boi

Grandayy

Dat Boi

Ben Shapiro

Dat Boi

Mike Scott

Grandayy

Waluigi

Dat Boi

Dolan Dark
Bongo Cat

Waluigi

Bongo Cat

Ugandan Knuckles
Dat Boi

Mike Scott

Bowsette
Dolan Dark

Justin Trudeau

Waluigi

Dat Boi

Harambe

Stefan Karl

Grandayy

Dat Boi

Ugandan Knuckles

Waluigi

Dat Boi
Dolan Dark
Johnny Johnny
Bongo Cat
Lamp
Harambe
God Emperor

Dolan Dark

loops
Ben Shapiro

Stefan Karl

Ugandan Knuckles